^C:\USERS\JFELT\DOCUMENTS\CRYENGINE PROJECTS\HEALTHSYSTEM\CODE\STDAFX.CPP
C:\USERS\JFELT\DOCUMENTS\CRYENGINE PROJECTS\HEALTHSYSTEM\SOLUTIONS\WIN64\GAME.DIR\PROFILE\GAME.PCH
C:\USERS\JFELT\DOCUMENTS\CRYENGINE PROJECTS\HEALTHSYSTEM\SOLUTIONS\WIN64\GAME.DIR\PROFILE\VC142.PDB
C:\USERS\JFELT\DOCUMENTS\CRYENGINE PROJECTS\HEALTHSYSTEM\SOLUTIONS\WIN64\GAME.DIR\PROFILE\STDAFX.OBJ
^C:\USERS\JFELT\DOCUMENTS\CRYENGINE PROJECTS\HEALTHSYSTEM\CODE\COMPONENTS\ACTORSTATUS.CPP|C:\USERS\JFELT\DOCUMENTS\CRYENGINE PROJECTS\HEALTHSYSTEM\CODE\COMPONENTS\HEALTHBED.CPP
C:\USERS\JFELT\DOCUMENTS\CRYENGINE PROJECTS\HEALTHSYSTEM\SOLUTIONS\WIN64\GAME.DIR\PROFILE\ACTORSTATUS.OBJ
C:\USERS\JFELT\DOCUMENTS\CRYENGINE PROJECTS\HEALTHSYSTEM\SOLUTIONS\WIN64\GAME.DIR\PROFILE\HEALTHBED.OBJ
^C:\USERS\JFELT\DOCUMENTS\CRYENGINE PROJECTS\HEALTHSYSTEM\CODE\COMPONENTS\ACTORSTATUS.CPP|C:\USERS\JFELT\DOCUMENTS\CRYENGINE PROJECTS\HEALTHSYSTEM\CODE\COMPONENTS\HEALTHBED.CPP|C:\USERS\JFELT\DOCUMENTS\CRYENGINE PROJECTS\HEALTHSYSTEM\CODE\COMPONENTS\INFECTION.CPP
C:\USERS\JFELT\DOCUMENTS\CRYENGINE PROJECTS\HEALTHSYSTEM\SOLUTIONS\WIN64\GAME.DIR\PROFILE\INFECTION.OBJ
C:\USERS\JFELT\DOCUMENTS\CRYENGINE PROJECTS\HEALTHSYSTEM\SOLUTIONS\WIN64\GAME.DIR\PROFILE\HEALTHBED.OBJ
C:\USERS\JFELT\DOCUMENTS\CRYENGINE PROJECTS\HEALTHSYSTEM\SOLUTIONS\WIN64\GAME.DIR\PROFILE\ACTORSTATUS.OBJ
^C:\USERS\JFELT\DOCUMENTS\CRYENGINE PROJECTS\HEALTHSYSTEM\CODE\COMPONENTS\ACTORSTATUS.CPP|C:\USERS\JFELT\DOCUMENTS\CRYENGINE PROJECTS\HEALTHSYSTEM\CODE\COMPONENTS\HEALTHBED.CPP|C:\USERS\JFELT\DOCUMENTS\CRYENGINE PROJECTS\HEALTHSYSTEM\CODE\COMPONENTS\ROOM.CPP
C:\USERS\JFELT\DOCUMENTS\CRYENGINE PROJECTS\HEALTHSYSTEM\SOLUTIONS\WIN64\GAME.DIR\PROFILE\ACTORSTATUS.OBJ
C:\USERS\JFELT\DOCUMENTS\CRYENGINE PROJECTS\HEALTHSYSTEM\SOLUTIONS\WIN64\GAME.DIR\PROFILE\ROOM.OBJ
C:\USERS\JFELT\DOCUMENTS\CRYENGINE PROJECTS\HEALTHSYSTEM\SOLUTIONS\WIN64\GAME.DIR\PROFILE\HEALTHBED.OBJ
^C:\USERS\JFELT\DOCUMENTS\CRYENGINE PROJECTS\HEALTHSYSTEM\CODE\COMPONENTS\ACTORSTATUS.CPP|C:\USERS\JFELT\DOCUMENTS\CRYENGINE PROJECTS\HEALTHSYSTEM\CODE\COMPONENTS\HEALTHBED.CPP|C:\USERS\JFELT\DOCUMENTS\CRYENGINE PROJECTS\HEALTHSYSTEM\CODE\COMPONENTS\INFECTION.CPP|C:\USERS\JFELT\DOCUMENTS\CRYENGINE PROJECTS\HEALTHSYSTEM\CODE\COMPONENTS\ROOM.CPP
C:\USERS\JFELT\DOCUMENTS\CRYENGINE PROJECTS\HEALTHSYSTEM\SOLUTIONS\WIN64\GAME.DIR\PROFILE\INFECTION.OBJ
C:\USERS\JFELT\DOCUMENTS\CRYENGINE PROJECTS\HEALTHSYSTEM\SOLUTIONS\WIN64\GAME.DIR\PROFILE\ACTORSTATUS.OBJ
C:\USERS\JFELT\DOCUMENTS\CRYENGINE PROJECTS\HEALTHSYSTEM\SOLUTIONS\WIN64\GAME.DIR\PROFILE\ROOM.OBJ
^C:\USERS\JFELT\DOCUMENTS\CRYENGINE PROJECTS\HEALTHSYSTEM\CODE\COMPONENTS\ACTORSTATUS.CPP
C:\USERS\JFELT\DOCUMENTS\CRYENGINE PROJECTS\HEALTHSYSTEM\SOLUTIONS\WIN64\GAME.DIR\PROFILE\ACTORSTATUS.OBJ
^C:\USERS\JFELT\DOCUMENTS\CRYENGINE PROJECTS\HEALTHSYSTEM\CODE\COMPONENTS\INFECTION.CPP
C:\USERS\JFELT\DOCUMENTS\CRYENGINE PROJECTS\HEALTHSYSTEM\SOLUTIONS\WIN64\GAME.DIR\PROFILE\INFECTION.OBJ
^C:\USERS\JFELT\DOCUMENTS\CRYENGINE PROJECTS\HEALTHSYSTEM\CODE\COMPONENTS\HEALTHBED.CPP|C:\USERS\JFELT\DOCUMENTS\CRYENGINE PROJECTS\HEALTHSYSTEM\CODE\COMPONENTS\ROOM.CPP
C:\USERS\JFELT\DOCUMENTS\CRYENGINE PROJECTS\HEALTHSYSTEM\SOLUTIONS\WIN64\GAME.DIR\PROFILE\HEALTHBED.OBJ
C:\USERS\JFELT\DOCUMENTS\CRYENGINE PROJECTS\HEALTHSYSTEM\SOLUTIONS\WIN64\GAME.DIR\PROFILE\ROOM.OBJ
^C:\USERS\JFELT\DOCUMENTS\CRYENGINE PROJECTS\HEALTHSYSTEM\CODE\COMPONENTS\HEALTHBED.CPP
C:\USERS\JFELT\DOCUMENTS\CRYENGINE PROJECTS\HEALTHSYSTEM\SOLUTIONS\WIN64\GAME.DIR\PROFILE\VC142.PDB
^C:\USERS\JFELT\DOCUMENTS\CRYENGINE PROJECTS\HEALTHSYSTEM\SOLUTIONS\WIN64\CODE_UBER.CPP|C:\USERS\JFELT\DOCUMENTS\CRYENGINE PROJECTS\HEALTHSYSTEM\SOLUTIONS\WIN64\COMPONENTS_UBER.CPP
C:\USERS\JFELT\DOCUMENTS\CRYENGINE PROJECTS\HEALTHSYSTEM\SOLUTIONS\WIN64\GAME.DIR\PROFILE\CODE_UBER.OBJ
C:\USERS\JFELT\DOCUMENTS\CRYENGINE PROJECTS\HEALTHSYSTEM\SOLUTIONS\WIN64\GAME.DIR\PROFILE\COMPONENTS_UBER.OBJ
^C:\USERS\JFELT\DOCUMENTS\CRYENGINE PROJECTS\HEALTHSYSTEM\SOLUTIONS\WIN64\CODE_UBER.CPP
C:\USERS\JFELT\DOCUMENTS\CRYENGINE PROJECTS\HEALTHSYSTEM\SOLUTIONS\WIN64\GAME.DIR\PROFILE\VC142.PDB
^C:\USERS\JFELT\DOCUMENTS\CRYENGINE PROJECTS\HEALTHSYSTEM\CODE\COMPONENTS\ROOM.CPP
C:\USERS\JFELT\DOCUMENTS\CRYENGINE PROJECTS\HEALTHSYSTEM\SOLUTIONS\WIN64\GAME.DIR\PROFILE\VC142.PDB
C:\USERS\JFELT\DOCUMENTS\CRYENGINE PROJECTS\HEALTHSYSTEM\SOLUTIONS\WIN64\GAME.DIR\PROFILE\ROOM.OBJ
^C:\USERS\JFELT\DOCUMENTS\CRYENGINE PROJECTS\HEALTHSYSTEM\SOLUTIONS\WIN64\COMPONENTS_UBER.CPP
C:\USERS\JFELT\DOCUMENTS\CRYENGINE PROJECTS\HEALTHSYSTEM\SOLUTIONS\WIN64\GAME.DIR\PROFILE\VC142.PDB
C:\USERS\JFELT\DOCUMENTS\CRYENGINE PROJECTS\HEALTHSYSTEM\SOLUTIONS\WIN64\GAME.DIR\PROFILE\COMPONENTS_UBER.OBJ
