#Command: "C:\Program Files (x86)\Microsoft Visual Studio\2019\Community\VC\Tools\MSVC\14.24.28314\bin\HostX64\x64\link.exe" /ERRORREPORT:PROMPT @C:\Users\jfelt\AppData\Local\Temp\tmp5aadc1a0151848aea72b27d3acb3ef91.rsp /nologo /incremental /fullbuild
^C:\USERS\JFELT\DOCUMENTS\CRYENGINE PROJECTS\HEALTHSYSTEM\SOLUTIONS\WIN64\GAME.DIR\PROFILE\ACTORSTATUS.OBJ|C:\USERS\JFELT\DOCUMENTS\CRYENGINE PROJECTS\HEALTHSYSTEM\SOLUTIONS\WIN64\GAME.DIR\PROFILE\CODE_UBER.OBJ|C:\USERS\JFELT\DOCUMENTS\CRYENGINE PROJECTS\HEALTHSYSTEM\SOLUTIONS\WIN64\GAME.DIR\PROFILE\COMPONENTS_UBER.OBJ|C:\USERS\JFELT\DOCUMENTS\CRYENGINE PROJECTS\HEALTHSYSTEM\SOLUTIONS\WIN64\GAME.DIR\PROFILE\GAME.AUTOGEN.RES|C:\USERS\JFELT\DOCUMENTS\CRYENGINE PROJECTS\HEALTHSYSTEM\SOLUTIONS\WIN64\GAME.DIR\PROFILE\HEALTHBED.OBJ|C:\USERS\JFELT\DOCUMENTS\CRYENGINE PROJECTS\HEALTHSYSTEM\SOLUTIONS\WIN64\GAME.DIR\PROFILE\INFECTION.OBJ|C:\USERS\JFELT\DOCUMENTS\CRYENGINE PROJECTS\HEALTHSYSTEM\SOLUTIONS\WIN64\GAME.DIR\PROFILE\ROOM.OBJ|C:\USERS\JFELT\DOCUMENTS\CRYENGINE PROJECTS\HEALTHSYSTEM\SOLUTIONS\WIN64\GAME.DIR\PROFILE\STDAFX.OBJ
C:\USERS\JFELT\DOCUMENTS\CRYENGINE PROJECTS\HEALTHSYSTEM\BIN\WIN_X64\GAME.PDB
