^C:\USERS\JFELT\DOCUMENTS\CRYENGINE PROJECTS\HEALTHSYSTEM\CODE\STDAFX.CPP
/c /I"C:\USERS\JFELT\DOCUMENTS\CRYENGINE PROJECTS\HEALTHSYSTEM\CODE" /I"C:\PROGRAM FILES (X86)\CRYTEK\CRYENGINE LAUNCHER\CRYTEK\CRYENGINE_5.6\CODE\CRYENGINE\CRYCOMMON" /I"C:\PROGRAM FILES (X86)\CRYTEK\CRYENGINE LAUNCHER\CRYTEK\CRYENGINE_5.6\CODE\CRYENGINE\CRYACTION" /I"C:\PROGRAM FILES (X86)\CRYTEK\CRYENGINE LAUNCHER\CRYTEK\CRYENGINE_5.6\CODE\CRYENGINE\CRYSCHEMATYC\CORE\INTERFACE" /I"C:\PROGRAM FILES (X86)\CRYTEK\CRYENGINE LAUNCHER\CRYTEK\CRYENGINE_5.6\CODE\CRYPLUGINS\CRYDEFAULTENTITIES\MODULE" /Zi /nologo /W3 /WX /Wv:"18" /diagnostics:column /Od /Ob0 /Oy- /D DEBUG /D _DEBUG /D USE_PCH /D "CODE_BASE_FOLDER=\"C:/Program Files (x86)/Crytek/CRYENGINE Launcher/Crytek/CRYENGINE_5.6/Code/\"" /D _WINDOWS /D WIN32 /D _WIN32 /D _WIN64 /D "CRY_CVAR_OVERRIDE_FILE=\"C:/Users/jfelt/Documents/CRYENGINE Projects/HealthSystem/solutions/win64/ProjectCVarOverrides.h\"" /D "CRY_CVAR_WHITELIST_FILE=\"C:/Users/jfelt/Documents/CRYENGINE Projects/HealthSystem/solutions/win64/ProjectCVarWhitelist.h\"" /D "CRY_ENGINE_DEFINE_OVERRIDE_FILE=\"C:/Users/jfelt/Documents/CRYENGINE Projects/HealthSystem/solutions/win64/ProjectEngineDefineOverrides.h\"" /D CRYENGINE_DEFINE /D UQS_SCHEMATYC_SUPPORT=0 /D USE_GEOM_CACHES=1 /D MEMREPLAY_USES_DETOURS=1 /D "CMAKE_INTDIR=\"Debug\"" /D Game_EXPORTS /D _WINDLL /D _MBCS /GF /Gm- /RTC1 /MDd /GS /Gy /fp:fast /permissive- /Zc:wchar_t /Zc:forScope /Zc:inline /Yc"StdAfx.h" /Fp"GAME.DIR\DEBUG\GAME.PCH" /Fo"GAME.DIR\DEBUG\\" /Fd"GAME.DIR\DEBUG\VC142.PDB" /Gd /TP /wd4653 /wd4275 /wd4961 /wd4068  /utf-8 /bigobj /Zo C:\USERS\JFELT\DOCUMENTS\CRYENGINE PROJECTS\HEALTHSYSTEM\CODE\STDAFX.CPP
^C:\USERS\JFELT\DOCUMENTS\CRYENGINE PROJECTS\HEALTHSYSTEM\CODE\COMPONENTS\ACTORSTATUS.CPP
/c /I"C:\USERS\JFELT\DOCUMENTS\CRYENGINE PROJECTS\HEALTHSYSTEM\CODE" /I"C:\PROGRAM FILES (X86)\CRYTEK\CRYENGINE LAUNCHER\CRYTEK\CRYENGINE_5.6\CODE\CRYENGINE\CRYCOMMON" /I"C:\PROGRAM FILES (X86)\CRYTEK\CRYENGINE LAUNCHER\CRYTEK\CRYENGINE_5.6\CODE\CRYENGINE\CRYACTION" /I"C:\PROGRAM FILES (X86)\CRYTEK\CRYENGINE LAUNCHER\CRYTEK\CRYENGINE_5.6\CODE\CRYENGINE\CRYSCHEMATYC\CORE\INTERFACE" /I"C:\PROGRAM FILES (X86)\CRYTEK\CRYENGINE LAUNCHER\CRYTEK\CRYENGINE_5.6\CODE\CRYPLUGINS\CRYDEFAULTENTITIES\MODULE" /Zi /nologo /W3 /WX /Wv:"18" /diagnostics:column /Od /Ob0 /Oy- /D DEBUG /D _DEBUG /D USE_PCH /D "CODE_BASE_FOLDER=\"C:/Program Files (x86)/Crytek/CRYENGINE Launcher/Crytek/CRYENGINE_5.6/Code/\"" /D _WINDOWS /D WIN32 /D _WIN32 /D _WIN64 /D "CRY_CVAR_OVERRIDE_FILE=\"C:/Users/jfelt/Documents/CRYENGINE Projects/HealthSystem/solutions/win64/ProjectCVarOverrides.h\"" /D "CRY_CVAR_WHITELIST_FILE=\"C:/Users/jfelt/Documents/CRYENGINE Projects/HealthSystem/solutions/win64/ProjectCVarWhitelist.h\"" /D "CRY_ENGINE_DEFINE_OVERRIDE_FILE=\"C:/Users/jfelt/Documents/CRYENGINE Projects/HealthSystem/solutions/win64/ProjectEngineDefineOverrides.h\"" /D CRYENGINE_DEFINE /D UQS_SCHEMATYC_SUPPORT=0 /D USE_GEOM_CACHES=1 /D MEMREPLAY_USES_DETOURS=1 /D "CMAKE_INTDIR=\"Debug\"" /D Game_EXPORTS /D _WINDLL /D _MBCS /GF /Gm- /RTC1 /MDd /GS /Gy /fp:fast /permissive- /Zc:wchar_t /Zc:forScope /Zc:inline /Fo"GAME.DIR\DEBUG\\" /Fd"GAME.DIR\DEBUG\VC142.PDB" /Gd /TP /wd4653 /wd4275 /wd4961 /wd4068  /utf-8 /bigobj /Zo C:\USERS\JFELT\DOCUMENTS\CRYENGINE PROJECTS\HEALTHSYSTEM\CODE\COMPONENTS\ACTORSTATUS.CPP
^C:\USERS\JFELT\DOCUMENTS\CRYENGINE PROJECTS\HEALTHSYSTEM\CODE\COMPONENTS\HEALTHBED.CPP
/c /I"C:\USERS\JFELT\DOCUMENTS\CRYENGINE PROJECTS\HEALTHSYSTEM\CODE" /I"C:\PROGRAM FILES (X86)\CRYTEK\CRYENGINE LAUNCHER\CRYTEK\CRYENGINE_5.6\CODE\CRYENGINE\CRYCOMMON" /I"C:\PROGRAM FILES (X86)\CRYTEK\CRYENGINE LAUNCHER\CRYTEK\CRYENGINE_5.6\CODE\CRYENGINE\CRYACTION" /I"C:\PROGRAM FILES (X86)\CRYTEK\CRYENGINE LAUNCHER\CRYTEK\CRYENGINE_5.6\CODE\CRYENGINE\CRYSCHEMATYC\CORE\INTERFACE" /I"C:\PROGRAM FILES (X86)\CRYTEK\CRYENGINE LAUNCHER\CRYTEK\CRYENGINE_5.6\CODE\CRYPLUGINS\CRYDEFAULTENTITIES\MODULE" /Zi /nologo /W3 /WX /Wv:"18" /diagnostics:column /Od /Ob0 /Oy- /D DEBUG /D _DEBUG /D USE_PCH /D "CODE_BASE_FOLDER=\"C:/Program Files (x86)/Crytek/CRYENGINE Launcher/Crytek/CRYENGINE_5.6/Code/\"" /D _WINDOWS /D WIN32 /D _WIN32 /D _WIN64 /D "CRY_CVAR_OVERRIDE_FILE=\"C:/Users/jfelt/Documents/CRYENGINE Projects/HealthSystem/solutions/win64/ProjectCVarOverrides.h\"" /D "CRY_CVAR_WHITELIST_FILE=\"C:/Users/jfelt/Documents/CRYENGINE Projects/HealthSystem/solutions/win64/ProjectCVarWhitelist.h\"" /D "CRY_ENGINE_DEFINE_OVERRIDE_FILE=\"C:/Users/jfelt/Documents/CRYENGINE Projects/HealthSystem/solutions/win64/ProjectEngineDefineOverrides.h\"" /D CRYENGINE_DEFINE /D UQS_SCHEMATYC_SUPPORT=0 /D USE_GEOM_CACHES=1 /D MEMREPLAY_USES_DETOURS=1 /D "CMAKE_INTDIR=\"Debug\"" /D Game_EXPORTS /D _WINDLL /D _MBCS /GF /Gm- /RTC1 /MDd /GS /Gy /fp:fast /permissive- /Zc:wchar_t /Zc:forScope /Zc:inline /Fo"GAME.DIR\DEBUG\\" /Fd"GAME.DIR\DEBUG\VC142.PDB" /Gd /TP /wd4653 /wd4275 /wd4961 /wd4068  /utf-8 /bigobj /Zo C:\USERS\JFELT\DOCUMENTS\CRYENGINE PROJECTS\HEALTHSYSTEM\CODE\COMPONENTS\HEALTHBED.CPP
^C:\USERS\JFELT\DOCUMENTS\CRYENGINE PROJECTS\HEALTHSYSTEM\SOLUTIONS\WIN64\CODE_UBER.CPP
/c /I"C:\USERS\JFELT\DOCUMENTS\CRYENGINE PROJECTS\HEALTHSYSTEM\CODE" /I"C:\PROGRAM FILES (X86)\CRYTEK\CRYENGINE LAUNCHER\CRYTEK\CRYENGINE_5.6\CODE\CRYENGINE\CRYCOMMON" /I"C:\PROGRAM FILES (X86)\CRYTEK\CRYENGINE LAUNCHER\CRYTEK\CRYENGINE_5.6\CODE\CRYENGINE\CRYACTION" /I"C:\PROGRAM FILES (X86)\CRYTEK\CRYENGINE LAUNCHER\CRYTEK\CRYENGINE_5.6\CODE\CRYENGINE\CRYSCHEMATYC\CORE\INTERFACE" /I"C:\PROGRAM FILES (X86)\CRYTEK\CRYENGINE LAUNCHER\CRYTEK\CRYENGINE_5.6\CODE\CRYPLUGINS\CRYDEFAULTENTITIES\MODULE" /Zi /nologo /W3 /WX /Wv:"18" /diagnostics:column /Od /Ob0 /Oy- /D DEBUG /D _DEBUG /D USE_PCH /D "CODE_BASE_FOLDER=\"C:/Program Files (x86)/Crytek/CRYENGINE Launcher/Crytek/CRYENGINE_5.6/Code/\"" /D _WINDOWS /D WIN32 /D _WIN32 /D _WIN64 /D "CRY_CVAR_OVERRIDE_FILE=\"C:/Users/jfelt/Documents/CRYENGINE Projects/HealthSystem/solutions/win64/ProjectCVarOverrides.h\"" /D "CRY_CVAR_WHITELIST_FILE=\"C:/Users/jfelt/Documents/CRYENGINE Projects/HealthSystem/solutions/win64/ProjectCVarWhitelist.h\"" /D "CRY_ENGINE_DEFINE_OVERRIDE_FILE=\"C:/Users/jfelt/Documents/CRYENGINE Projects/HealthSystem/solutions/win64/ProjectEngineDefineOverrides.h\"" /D CRYENGINE_DEFINE /D UQS_SCHEMATYC_SUPPORT=0 /D USE_GEOM_CACHES=1 /D MEMREPLAY_USES_DETOURS=1 /D "CMAKE_INTDIR=\"Debug\"" /D Game_EXPORTS /D _WINDLL /D _MBCS /GF /Gm- /RTC1 /MDd /GS /Gy /fp:fast /permissive- /Zc:wchar_t /Zc:forScope /Zc:inline /Yu"StdAfx.h" /Fp"GAME.DIR\DEBUG\GAME.PCH" /Fo"GAME.DIR\DEBUG\\" /Fd"GAME.DIR\DEBUG\VC142.PDB" /Gd /TP /wd4653 /wd4275 /wd4961 /wd4068  /utf-8 /bigobj /Zo C:\USERS\JFELT\DOCUMENTS\CRYENGINE PROJECTS\HEALTHSYSTEM\SOLUTIONS\WIN64\CODE_UBER.CPP
^C:\USERS\JFELT\DOCUMENTS\CRYENGINE PROJECTS\HEALTHSYSTEM\SOLUTIONS\WIN64\COMPONENTS_UBER.CPP
/c /I"C:\USERS\JFELT\DOCUMENTS\CRYENGINE PROJECTS\HEALTHSYSTEM\CODE" /I"C:\PROGRAM FILES (X86)\CRYTEK\CRYENGINE LAUNCHER\CRYTEK\CRYENGINE_5.6\CODE\CRYENGINE\CRYCOMMON" /I"C:\PROGRAM FILES (X86)\CRYTEK\CRYENGINE LAUNCHER\CRYTEK\CRYENGINE_5.6\CODE\CRYENGINE\CRYACTION" /I"C:\PROGRAM FILES (X86)\CRYTEK\CRYENGINE LAUNCHER\CRYTEK\CRYENGINE_5.6\CODE\CRYENGINE\CRYSCHEMATYC\CORE\INTERFACE" /I"C:\PROGRAM FILES (X86)\CRYTEK\CRYENGINE LAUNCHER\CRYTEK\CRYENGINE_5.6\CODE\CRYPLUGINS\CRYDEFAULTENTITIES\MODULE" /Zi /nologo /W3 /WX /Wv:"18" /diagnostics:column /Od /Ob0 /Oy- /D DEBUG /D _DEBUG /D USE_PCH /D "CODE_BASE_FOLDER=\"C:/Program Files (x86)/Crytek/CRYENGINE Launcher/Crytek/CRYENGINE_5.6/Code/\"" /D _WINDOWS /D WIN32 /D _WIN32 /D _WIN64 /D "CRY_CVAR_OVERRIDE_FILE=\"C:/Users/jfelt/Documents/CRYENGINE Projects/HealthSystem/solutions/win64/ProjectCVarOverrides.h\"" /D "CRY_CVAR_WHITELIST_FILE=\"C:/Users/jfelt/Documents/CRYENGINE Projects/HealthSystem/solutions/win64/ProjectCVarWhitelist.h\"" /D "CRY_ENGINE_DEFINE_OVERRIDE_FILE=\"C:/Users/jfelt/Documents/CRYENGINE Projects/HealthSystem/solutions/win64/ProjectEngineDefineOverrides.h\"" /D CRYENGINE_DEFINE /D UQS_SCHEMATYC_SUPPORT=0 /D USE_GEOM_CACHES=1 /D MEMREPLAY_USES_DETOURS=1 /D "CMAKE_INTDIR=\"Debug\"" /D Game_EXPORTS /D _WINDLL /D _MBCS /GF /Gm- /RTC1 /MDd /GS /Gy /fp:fast /permissive- /Zc:wchar_t /Zc:forScope /Zc:inline /Yu"StdAfx.h" /Fp"GAME.DIR\DEBUG\GAME.PCH" /Fo"GAME.DIR\DEBUG\\" /Fd"GAME.DIR\DEBUG\VC142.PDB" /Gd /TP /wd4653 /wd4275 /wd4961 /wd4068  /utf-8 /bigobj /Zo C:\USERS\JFELT\DOCUMENTS\CRYENGINE PROJECTS\HEALTHSYSTEM\SOLUTIONS\WIN64\COMPONENTS_UBER.CPP
