^C:\USERS\JFELT\DOCUMENTS\CRYENGINE PROJECTS\HEALTHSYSTEM\SOLUTIONS\WIN64\GAME.DIR\DEBUG\ACTORSTATUS.OBJ|C:\USERS\JFELT\DOCUMENTS\CRYENGINE PROJECTS\HEALTHSYSTEM\SOLUTIONS\WIN64\GAME.DIR\DEBUG\CODE_UBER.OBJ|C:\USERS\JFELT\DOCUMENTS\CRYENGINE PROJECTS\HEALTHSYSTEM\SOLUTIONS\WIN64\GAME.DIR\DEBUG\COMPONENTS_UBER.OBJ|C:\USERS\JFELT\DOCUMENTS\CRYENGINE PROJECTS\HEALTHSYSTEM\SOLUTIONS\WIN64\GAME.DIR\DEBUG\GAME.AUTOGEN.RES|C:\USERS\JFELT\DOCUMENTS\CRYENGINE PROJECTS\HEALTHSYSTEM\SOLUTIONS\WIN64\GAME.DIR\DEBUG\HEALTHBED.OBJ|C:\USERS\JFELT\DOCUMENTS\CRYENGINE PROJECTS\HEALTHSYSTEM\SOLUTIONS\WIN64\GAME.DIR\DEBUG\STDAFX.OBJ
C:\USERS\JFELT\DOCUMENTS\CRYENGINE PROJECTS\HEALTHSYSTEM\BIN\WIN_X64\GAME.DLL
C:\USERS\JFELT\DOCUMENTS\CRYENGINE PROJECTS\HEALTHSYSTEM\BIN\WIN_X64\GAME.ILK
C:\USERS\JFELT\DOCUMENTS\CRYENGINE PROJECTS\HEALTHSYSTEM\BIN\WIN_X64\GAME.PDB
